{
  "project_info": {
    "project_number": "150934681810",
    "firebase_url": "https://instagramapp-6b7f4.firebaseio.com",
    "project_id": "instagramapp-6b7f4",
    "storage_bucket": "instagramapp-6b7f4.appspot.com"
  },
  "client": [
    {
      "client_info": {
        "mobilesdk_app_id": "1:150934681810:android:1f80cd976298f684",
        "android_client_info": {
          "package_name": "com.example.sung.instagram"
        }
      },
      "oauth_client": [
        {
          "client_id": "150934681810-hqe01oe83toesvgh50j691kv1u3oulj7.apps.googleusercontent.com",
          "client_type": 3
        }
      ],
      "api_key": [
        {
          "current_key": "AIzaSyAt07-MxDZO93z2vllNEv0HGaBtSFAe-IE"
        }
      ],
      "services": {
        "analytics_service": {
          "status": 1
        },
        "appinvite_service": {
          "status": 1,
          "other_platform_oauth_client": []
        },
        "ads_service": {
          "status": 2
        }
      }
    }
  ],
  "configuration_version": "1"
}